"Released","Film Name (Count)","Total Box Office (Sum)","Total Box Office (Mean)","Total Box Office (Median)"
1937,1,1.84925485E8,1.84925485E8,1.84925485E8
1939,1,1.9868047E8,1.9868047E8,1.9868047E8
1942,1,1.02797E8,1.02797E8,1.02797E8
1961,1,1.53E8,1.53E8,1.53E8
1964,1,1.023E8,1.023E8,1.023E8
1965,2,2.74935286E8,1.37467643E8,1.37467643E8
1967,2,2.46240102E8,1.23120051E8,1.23120051E8
1969,1,1.023089E8,1.023089E8,1.023089E8
1970,2,2.06886336E8,1.03443168E8,1.03443168E8
1972,1,1.34966411E8,1.34966411E8,1.34966411E8
1973,3,4.79484329E8,1.5982810966666666E8,1.59616327E8
1974,2,2.355E8,1.1775E8,1.1775E8
1975,3,5.08857692E8,1.6961923066666666E8,1.39876417E8
1976,1,1.17235147E8,1.17235147E8,1.17235147E8
1977,4,8.93221559E8,2.2330538975E8,1.52743062E8
1978,5,6.64822891E8,1.329645782E8,1.34218018E8
1979,1,1.0626E8,1.0626E8,1.0626E8
1980,3,4.9486246E8,1.649541533333333E8,1.032905E8
1981,3,4.75631109E8,1.58543703E8,1.19285432E8
1982,5,9.76647717E8,1.9532954340000004E8,1.29795554E8
1983,2,4.17628568E8,2.08814284E8,2.08814284E8
1984,4,8.01441332E8,2.00360333E8,2.073203745E8
1985,4,6.1479891E8,1.536997275E8,1.39144574E8
1986,5,7.14370646E8,1.4287412920000002E8,1.37963328E8
1987,4,6.02014059E8,1.5050351475E8,1.551553645E8
1988,6,7.913016E8,1.318836E8,1.215605375E8
1989,10,1.415557046E9,1.415557046E8,1.24587087E8
1990,9,1.462440883E9,1.6249343144444442E8,1.35265915E8
1991,8,1.17882161E9,1.4735270125E8,1.273802535E8
1992,11,1.549507864E9,1.4086435127272722E8,1.3960515E8
1993,8,1.354786523E9,1.69348315375E8,1.42510888E8
1994,12,1.979302561E9,1.649418800833333E8,1.24594015E8
1995,10,1.305176896E9,1.3051768960000001E8,1.07395002E8
1996,15,2.165990844E9,1.443993896E8,1.28814019E8
1997,15,2.66011122E9,1.7734074800000003E8,1.26813153E8
1998,18,2.52213258E9,1.4011847666666672E8,1.35678131E8
1999,21,3.467073566E9,1.650987412380952E8,1.40015224E8
2000,22,3.32407774E9,1.5109444272727266E8,1.329079355E8
2001,20,3.627651082E9,1.813825541E8,1.75360368E8
2002,24,4.420051007E9,1.8416879195833328E8,1.571181515E8
2003,29,4.600336441E9,1.586322910689655E8,1.27120058E8
2004,24,4.392331237E9,1.8301380154166672E8,1.390498E8
2005,19,3.62201996E9,1.9063262947368416E8,1.86336279E8
2006,19,3.476382407E9,1.8296749510526314E8,1.62586036E8
2007,28,5.164711941E9,1.8445399789285713E8,1.46128515E8
2008,29,4.891840424E9,1.6868415255172417E8,1.4162149E8
2009,32,6.371696066E9,1.9911550206250003E8,1.59511148E8
2010,30,5.48585404E9,1.828618013333333E8,1.55219893E8
2011,30,5.163861712E9,1.721287237333333E8,1.572547835E8
2012,25,5.182530995E9,2.0730123979999995E8,1.60965655E8
